https://raw.githubusercontent.com/adamenger/cryptopals-solutions/master/5/five.go
https://raw.githubusercontent.com/yaychris/cryptopals/master/src/challenge5.rs
https://raw.githubusercontent.com/Daeinar/cryptopals/master/src/c05.rs
https://raw.githubusercontent.com/jaybosamiya/cryptopals-solutions/master/set1/5/run.py
https://raw.githubusercontent.com/akalin/cryptopals-python3/master/challenge5.py
https://raw.githubusercontent.com/ricpacca/cryptopals/master/S1C05.py
https://raw.githubusercontent.com/aklap/cryptopals-solutions/master/set_1/challenge5/solution5.py
https://raw.githubusercontent.com/technion/matasano_challenge/master/set1/chal5/chal5.rb
