https://raw.githubusercontent.com/ArnoldM904/CodeAbbey_Solutions/master/Python/id026-GCD_and_LCM.py
https://raw.githubusercontent.com/gravoo/codeabbey/master/Greatest%20Common%20Divisor%20.cpp
https://raw.githubusercontent.com/JFMurphy/Codeabbey-solutions/master/Java/P026_GreatestCommonDivisor.java
https://raw.githubusercontent.com/John-Russell/CodeAbbey/master/Greatest%20Common%20Divisor.rb
https://raw.githubusercontent.com/chriswood/codeabbey/master/caid26.lisp
https://raw.githubusercontent.com/danielmmetz/codeabbey/master/id26.hs
https://raw.githubusercontent.com/AleksandrSD/CodeAbbeyProblems/master/Problem26/Program.cs
https://raw.githubusercontent.com/mpeshehonov/Codeabbey/master/practice/%2326/index.php
https://raw.githubusercontent.com/mmcdon20/code_abbey/master/src/main/scala/Abbey026.scala
https://raw.githubusercontent.com/javilag/codeAbbeyChalls/master/Challs/Go/026.go
