https://www.youtube.com/watch?v=3QDGaq-FmWI
https://odysseasnotepad.wordpress.com/2014/01/04/hack-this-site-basic-missions-5/
http://www.gensale.net/hts-basic-level-5/
http://sp4hack.blogspot.com.co/2012/09/hack-this-site-basic-5.html
http://techtutorialsbykyle.blogspot.com.co/2012/01/hack-this-site-basic-mission-5.html
http://www.amitghosh.net/hts-basic-mission-5-solution/
https://0x1gab.com/2016/05/27/hackthissite-basic-challenge-level-3-4-5/
https://es.slideshare.net/ciskosv/hackthissite-3402645
https://www.youtube.com/watch?v=Y5SwVHFDj6A&feature=youtu.be&t=7m6s
https://raw.githubusercontent.com/USCGA/writeups/master/hack_this_site/basic_missions/level5/README.md
https://www.aldeid.com/wiki/Hackthissite/Basic/Level5
http://hackinblood.lasermark.co/basic-missions/
http://truemiller.com/2017/09/hack-this-site-all-basic-solutions/#basic_5
https://github.com/attilathedud/HackThisSite/tree/master/Basic
https://www.youtube.com/watch?v=GR8STuuoQ_o
