http://winkar.github.io/2015/01/24/wechall.html
https://www.wechall.net/forum-t804/AUTHED.html#post4947
https://www.wechall.net/forum-t804/AUTHED.html#post5215
https://www.wechall.net/forum-t804/AUTHED.html#post5469
http://byd.dropsec.xyz/2016/07/23/Webchall-CTF-writeup2/#AUTH-me
http://rk700.github.io/2014/06/24/auth-me/
http://naphthalol66.rssing.com/chan-60259461/all_p2.html#item29
https://medium.com/bugbountywriteup/wechall-wargame-solutions-76f60ea39b16
https://pengyang.me/2018/08/19/wechall/#32auth-me

