https://vinegrep.blogspot.com/2016/12/21ltr-scene-1-walkthrough.html
http://forelsec.blogspot.com/2013/01/solving-21ltr-scene-1.html
https://blog.g0tmi1k.com/2012/09/21ltr-scene-1/
https://www.youtube.com/watch?v=qE6ePZsN5V4
http://www.hackingarticles.in/hack-the-21ltr-scene-1-vm-boot-to-root/
https://l33thacker.com/21ltr-scene-1-walkthrough/
http://devloop.users.sourceforge.net/index.php?article141/solution-du-ctf-21ltr-scene-1-de-vulnhub
https://binarycoders.wordpress.com/2018/01/21/walkthrough-21ltr-scene-1/
https://grumpy-sec.blogspot.com/2016/12/from-boot-to-root-21-ltr-scene1-hello.html
http://www.cyberry.co.uk/vulnhub/21ltr-scene-1/

