https://raw.githubusercontent.com/agusmakmun/CodeFights/master/solutions/c%2B%2B/treeHeight.cpp
https://raw.githubusercontent.com/agusmakmun/CodeFights/master/solutions/java/treeHeight.java
https://raw.githubusercontent.com/agusmakmun/CodeFights/master/solutions/javascript/treeHeight.js
https://raw.githubusercontent.com/agusmakmun/CodeFights/master/solutions/python/2017/treeHeight.py
