https://raw.githubusercontent.com/mpfeifer1/Codeforces/master/217a.cpp
https://raw.githubusercontent.com/adityagupta1089/Codeforces-Solutions/master/P217A.java
https://raw.githubusercontent.com/changyuheng/codeforces-solutions/master/217a.py
