12 4 6 9 6 5 9 16 6 14 13 4 4 13 6 4 13 3 9 6 6 10 8 9 3 11 11 2 14 8 3 3 9 8 8 6 15 2 8 10 6 6 8 6 6 7 6 14 14 7 11 9 11 4 10 12 16 5 8 13 12 12 4 15 6 5 9 15 5 13 6 11 9 4 16 13 11 12 9 15 15 4 7 2 2 8 7 3 9 8 6 3 12 13 14 9 12 11 12 11 0
23 14 17 16 21 17 23 17 15 19 15 21 16 16 16 21 22 24 18 18 15 20 24 11 7 15 20 23 16 10 14 21 13 16 22 19 12 20 17 14 20 21 23 18 14 23 21 21 19 19 14 14 18 22 17 24 11 25 19 25 17 17 16 16 18 20 15 12 18 21 16 8 19 24 13 14 18 28 19 16 15 13 19 16 12 17 18 10 24 16 18 21 17 22 17 17 23 16 15 17 0
3 4 8 9 9 5 3 8 4 6 4 11 10 11 6 6 4 7 9 8 2 7 3 5 5 7 4 9 4 8 7 9 8 9 5 7 9 9 7 4 10 12 9 6 7 8 8 9 12 12 8 3 5 7 10 5 9 7 4 4 6 3 7 8 3 8 5 7 7 8 6 10 3 6 7 9 7 11 4 7 5 10 10 11 7 7 5 7 6 6 7 4 6 7 6 7 7 6 8 6 0
