https://raw.githubusercontent.com/haikentcode/Hackerearth-CodeMonk-Python/master/Arrays%20%26%20Strings/Chandu%20and%20Consecutive%20Letters.py
https://raw.githubusercontent.com/nitinsinghal94/HackerEarth-Solution/master/Chandu%20and%20Consecutive%20Letters

