https://raw.githubusercontent.com/Waqar-107/Codeforces/master/A-set/205A.Little%20Elephant%20and%20Rozdil.cpp
https://raw.githubusercontent.com/o-panda-o/MySolutions/master/Implementation/Code_205A_LittleElephantAndRozdil.java
https://raw.githubusercontent.com/changyuheng/codeforces-solutions/master/205a.py
https://raw.githubusercontent.com/Erfaniaa/Codeforces/master/205A-LittleElephantandRozdil.pas
