https://gist.githubusercontent.com/CraigRodrigues/2f5dee93078abf2ed5c456e200957048/raw/96f3885f0bbaae2642d39154d0a55775379f1c76/palindrome.c
https://raw.githubusercontent.com/FrankKair/polyglot-euler/master/src/004/p004.clj
https://raw.githubusercontent.com/djadmin/project-euler/master/4.cpp
https://raw.githubusercontent.com/FrankKair/polyglot-euler/master/src/004/p004.cr
https://raw.githubusercontent.com/mattspaulding/hacker-rank/master/HackerRank/ProjectEuler/ProjectEuler004.cs
https://raw.githubusercontent.com/lakshayg/project-euler/master/dlang/euler004.d
https://raw.githubusercontent.com/FrankKair/polyglot-euler/master/src/004/p004.exs
https://gist.githubusercontent.com/brenden/1116176/raw/0472aa8b54546ceb4a50236165e3a53009ca15a5/euler_4.fs
https://raw.githubusercontent.com/lakshayg/project-euler/master/Go/004.go
https://raw.githubusercontent.com/rubik/project-euler-haskell/master/004.hs
https://raw.githubusercontent.com/mwickram/Project-Euler-4/master/src/largepalindrome/LargePalindrome.java
https://gist.githubusercontent.com/msnider/4315679/raw/0451a05498aaf7e5b579f2d38691ff6771dfa882/projecteuler_4.js
https://raw.githubusercontent.com/nayuki/Project-Euler-solutions/master/mathematica/p004.mathematica
https://raw.githubusercontent.com/lakshayg/project-euler/master/lisp/004.lisp
https://raw.githubusercontent.com/FrankKair/polyglot-euler/master/src/004/p004.lua
https://raw.githubusercontent.com/nayuki/Project-Euler-solutions/master/python/p004.py
https://gist.githubusercontent.com/evanc3/7229069/raw/e5e99a7acf99ad6cba209a6697333315d2fb3471/euler4.rb
https://raw.githubusercontent.com/FrankKair/polyglot-euler/master/src/004/p004.red
https://raw.githubusercontent.com/FrankKair/polyglot-euler/master/src/004/p004.rs
https://raw.githubusercontent.com/lakshayg/project-euler/master/scala/Euler004.scala
https://raw.githubusercontent.com/FrankKair/polyglot-euler/master/src/004/p004.swift
