https://raw.githubusercontent.com/igor-kutepov/codeabbey/master/src/main/java/com/kutepov/samples/codeabbey/IntegerFactorization.java
https://raw.githubusercontent.com/GuillermoLopezJr/CodeAbbey/master/Abbey063/main.py
https://raw.githubusercontent.com/mmcdon20/code_abbey/master/src/main/scala/Abbey063.scala
https://raw.githubusercontent.com/javilag/codeAbbeyChalls/master/Challs/Go/063.go
https://raw.githubusercontent.com/DionysiosB/CodeAbbey/master/IntegerFactorization.cpp
https://raw.githubusercontent.com/JesseClarkND/codeabbey_in_C-NET/master/Integer%20Factorization
https://raw.githubusercontent.com/skilled19/sols/master/cl/code-3/Pythagoras-63-integer-factorization.bf
https://raw.githubusercontent.com/skilled19/sols/master/cl/code-3/tinbtinb-square-root-18.lua
https://raw.githubusercontent.com/skilled19/sols/master/cl/code-3/litso_roman-63-integer-factorization.rst
https://raw.githubusercontent.com/skilled19/sols/master/cl/code-3/omasloksa-63-integer-factorization.julia

