https://raw.githubusercontent.com/ArnoldM904/CodeAbbey_Solutions/master/Python/id030-Reverse_String.py
https://raw.githubusercontent.com/gravoo/codeabbey/master/Reverse%20String%20.cpp
https://raw.githubusercontent.com/Tempurturtul/CodeAbbey/master/C%23/ReverseString.cs
https://raw.githubusercontent.com/John-Russell/CodeAbbey/master/Reverse%20String.rb
https://raw.githubusercontent.com/madhavbharadwaj/CodeAbbey/master/java_30_Bicycle_Race.java
https://raw.githubusercontent.com/chriswood/codeabbey/master/caid30.lisp
https://raw.githubusercontent.com/mpeshehonov/Codeabbey/master/practice/%2330/index.php
https://raw.githubusercontent.com/mmcdon20/code_abbey/master/src/main/scala/Abbey030.scala
https://raw.githubusercontent.com/McQuinTrix/CodeAbbey/master/30.%20Reverse_String.js
