https://raw.githubusercontent.com/nayuki/Project-Euler-solutions/master/java/p023.java
https://raw.githubusercontent.com/sile/euler.rs/master/euler_00/src/problem023.rs
https://raw.githubusercontent.com/smacke/project-euler/master/python/23.py
https://www.mathblog.dk/project-euler-23-find-positive-integers-not-sum-of-abundant-numbers/
https://raw.githubusercontent.com/zimpha/competitive-programming/master/project-euler/volume01/23.cc
https://raw.githubusercontent.com/nayuki/Project-Euler-solutions/blob/master/haskell/p023.hs
