https://raw.githubusercontent.com/anomen-s/programming-challenges/master/root-me.org/App-System/ELF32-Race-condition/run.sh
https://sivaramaaa.github.io/blog/race_vuln.html
https://github.com/s1syphu5/RootMe-Challenges/tree/master/System/ELF%20x86%20-%20Race%20condition
