https://www.youtube.com/watch?v=ipGsJsK4QQU
https://www.youtube.com/watch?v=p_hUc8tCKzE
https://hackthissitesoltution.wordpress.com/2012/03/08/hts-realistic-mission-7/
http://4allgeeks.blogspot.com.co/2010/10/hackthissite-realistic-mission-7.html
http://sp4hack.blogspot.com.co/2012/09/hack-this-site-realistic-7.html
http://www.amitghosh.net/hts-realistic-mission-7-solution/
https://www.aldeid.com/wiki/Hackthissite/Realistic/Level7
https://www.youtube.com/watch?v=5NxUr3p0MCQ
https://raw.githubusercontent.com/luceatnobis/challenges/master/hackthissite.org/real/7/hash
