https://raw.githubusercontent.com/Daeinar/cryptopals/master/src/c19.rs
https://raw.githubusercontent.com/jaybosamiya/cryptopals-solutions/master/set3/19/AES_128.py
https://raw.githubusercontent.com/jaybosamiya/cryptopals-solutions/master/set3/19/run.py
https://raw.githubusercontent.com/akalin/cryptopals-python3/master/challenge19.py
https://raw.githubusercontent.com/technion/matasano_challenge/master/set3/chal19/chal19.rb
