http://blog.zairo.kr/entry/OverTheWire-Natas-Level-18?category=569895
http://r4stl1n.github.io/2014/12/29/OverTheWire-Natas17-24.html#natas-18
https://infamoussyn.com/2014/02/05/overthewire-natas-level-0-16-writeup-updated/#level18
https://routley.io/tech/2017/06/17/natas.html
