https://tuonilabs.wordpress.com/2016/12/17/overthewire-behemoth-write-up/
http://r4stl1n.github.io/2014/12/14/OverTheWire-Behemoth0.html
http://blog.zairo.kr/entry/OverTheWire-%E2%80%93-Behemoth-Level-0?category=570169
https://sithlab.tistory.com/443
