https://raw.githubusercontent.com/c650/hackerrank-solutions/master/Algorithms/Implementation/electronics-shop.cpp
https://raw.githubusercontent.com/RyanFehr/HackerRank/master/Algorithms/Implementation/Electronics%20Shop/Solution.java
https://raw.githubusercontent.com/danhenriquesc/hackerrank/master/algorithms/implementation/eletronics_shop.py
