https://raw.githubusercontent.com/rootulp/exercism/master/java/sum-of-multiples/src/main/java/SumOfMultiples.java
https://raw.githubusercontent.com/rootulp/exercism/master/python/sum-of-multiples/sum_of_multiples.py
https://raw.githubusercontent.com/rootulp/exercism/master/ruby/exercises/sum-of-multiples/sum.rb
https://exercism.io/tracks/php/exercises/sum-of-multiples/solutions/c845a39070a04e37b7faec5d7f4d65d0
https://exercism.io/tracks/elm/exercises/sum-of-multiples/solutions/20274874ae92463fbd68897382b61831
https://exercism.io/tracks/scala/exercises/sum-of-multiples/solutions/0752e7b968174ecea3315703d2cd24e1
https://exercism.io/tracks/erlang/exercises/sum-of-multiples/solutions/f374113396a44e8b959c5ebc2210823f
https://exercism.io/tracks/go/exercises/sum-of-multiples/solutions/6e4f297dd5b3453ba10d8ad5ffa58522
https://exercism.io/tracks/perl5/exercises/sum-of-multiples/solutions/14b3d3d6936e43bab6ffa0f94c241204
https://exercism.io/tracks/cpp/exercises/sum-of-multiples/solutions/a67f0706132e4159bdeae53fc193c0ad
