https://raw.githubusercontent.com/igor-kutepov/codeabbey/master/src/main/java/com/kutepov/samples/codeabbey/BezierCurves.java
https://raw.githubusercontent.com/Xzya/CodeAbbeySolutions/master/BezierCurve.py
https://raw.githubusercontent.com/JesseClarkND/codeabbey_in_C-NET/master/Bezier%20Curves
