https://alexandervoidstar.wordpress.com/2015/09/20/hackthis-javascript-level-5/
https://raw.githubusercontent.com/james9909/PracticeCTF/master/HackThis/Javascript-5/Solution.txt
https://www.youtube.com/watch?v=GwLB6OEFJ9o
https://www.youtube.com/watch?v=V8t7gJgxoGg
https://www.youtube.com/watch?v=KCTs7WbfkNM
