https://raw.githubusercontent.com/c650/hackerrank-solutions/master/Algorithms/Implementation/grading-students.cpp
https://raw.githubusercontent.com/RodneyShag/HackerRank_solutions/master/General%20Programming/Basic%20Programming/Grading%20Students/Solution.java
https://raw.githubusercontent.com/joshuatvernon/coding-challenges/master/Hackerrank/Algorithms/Implementation/01.%20Grading%20Students/grading-students.py
