https://raw.githubusercontent.com/adityagupta1089/Codeforces-Solutions/master/P318A.java
https://raw.githubusercontent.com/dwiajik/codeforces/master/318A.py
https://raw.githubusercontent.com/mpfeifer1/Codeforces/master/318a.cpp
