https://raw.githubusercontent.com/sile/euler.rs/master/euler_03/src/problem088.rs
https://raw.githubusercontent.com/nayuki/Project-Euler-solutions/master/java/p088.java
https://raw.githubusercontent.com/nayuki/Project-Euler-solutions/master/python/p088.py
https://www.mathblog.dk/project-euler-88-minimal-product-sum-numbers/
