https://raw.githubusercontent.com/johngschulz/caesar/master/main.py
https://es.answers.yahoo.com/question/index?qid=20130629153249AAlDP6o
https://www.forocoches.com/foro/showthread.php?t=3313540
https://www.taringa.net/posts/ciencia-educacion/16886538/Criptografia.html
