https://raw.githubusercontent.com/Maximization/CodeAbbey/master/src/CardNames.java
https://raw.githubusercontent.com/AndyCYao/codeabbey/master/CA_prob_58_Card_Names.py
https://raw.githubusercontent.com/Chainsawkitten/CodeAbbeyProblems/master/src/Problem%2058/Problem%2058.cpp
https://raw.githubusercontent.com/AleksandrSD/CodeAbbeyProblems/master/Problem58/Program.cs
https://raw.githubusercontent.com/mmcdon20/code_abbey/master/src/main/scala/Abbey058.scala
https://raw.githubusercontent.com/JesseClarkND/codeabbey_in_C-NET/master/Card%20Names
