http://hackerorgsolution.blogspot.com.co/2014/09/counting.html
https://raw.githubusercontent.com/charles-wangkai/hacker.org/master/challenge/Counting.py
https://raw.githubusercontent.com/luceatnobis/challenges/master/hacker.org/counting/string
