https://raw.githubusercontent.com/nayuki/Project-Euler-solutions/master/java/p135.java
https://raw.githubusercontent.com/nayuki/Project-Euler-solutions/master/python/p135.py
https://www.mathblog.dk/project-euler-135-same-differences/
