http://sithlab.tistory.com/m/689
http://c6h4cl2.lab.uy.to/689
https://github.com/ThaWeatherman/eg_solutions/blob/master/basics/pre/pre_2.txt
https://www.yeahhub.com/enigma-group-starter-challenges-solutions/
https://www.youtube.com/watch?v=74b4uv51HMk
https://raw.githubusercontent.com/jeffnuss/enigma-group/master/SQL2.txt
