https://raw.githubusercontent.com/exercism/xrust/master/exercises/hello-world/example.rs
https://raw.githubusercontent.com/rootulp/exercism/master/javascript/hello-world/hello-world.js
https://raw.githubusercontent.com/rootulp/exercism/master/ruby/exercises/hello-world/hello_world.rb
http://introcs.cs.princeton.edu/java/11hello/HelloWorld.java
https://www.programiz.com/c-programming/examples/print-sentence
https://esolangs.org/wiki/Hello_world_program_in_esoteric_languages
http://leto.net/code/asm/hw_assembler.php
https://en.wikibooks.org/wiki/Fortran/Hello_world
http://helloworldcollection.de/#Darkbasic
http://helloworldcollection.de/#Dart
http://helloworldcollection.de/#Algol-68
http://helloworldcollection.de/#Arendelle
http://helloworldcollection.de/#ArnoldC
https://exercism.io/tracks/python/exercises/hello-world/solutions/8c55edc2eaa34192a97a1e4967c8976b
http://helloworldcollection.de/#Actionscript%C2%A0(Flash%C2%A05)
http://helloworldcollection.de/#Agda
http://helloworldcollection.de/#8th
http://helloworldcollection.de/#Assembler%C2%A0(PDP-11)
http://helloworldcollection.de/#ATS
http://helloworldcollection.de/#Blender
https://exercism.io/tracks/c/exercises/hello-world/solutions/c1c41f5018fb4ef2afe9a5e151f69e73
https://exercism.io/tracks/ballerina/exercises/hello-world/solutions/53dd341fe58d4769aab6e6ce995732e6
https://exercism.io/tracks/bash/exercises/hello-world/solutions/875b79ce8fbd4fb28156d107721411e8
https://exercism.io/tracks/csharp/exercises/hello-world/solutions/e348f0ba8450411985d1b90da0d4aec4
https://exercism.io/tracks/cfml/exercises/hello-world/solutions/aeb5acf08e934a6cb7e4c20001d24326
https://exercism.io/tracks/clojure/exercises/hello-world/solutions/3926827f712940b4a239676a6e3aeaa9
https://exercism.io/tracks/coffeescript/exercises/hello-world/solutions/23badd2bae0c4caf96556e7dfc6d81b2
https://exercism.io/tracks/crystal/exercises/hello-world/solutions/fa7b13842c76497bb115a1bcdc50df6f
https://exercism.io/tracks/erlang/exercises/hello-world/solutions/e429c7baf1c2488982a08ce340171c40
