https://raw.githubusercontent.com/nayuki/Project-Euler-solutions/master/java/p026.java
https://raw.githubusercontent.com/sile/euler.rs/master/euler_01/src/problem026.rs
https://raw.githubusercontent.com/kdungs/euler/master/026/euler_26.py
https://www.mathblog.dk/project-euler-26-find-the-value-of-d-1000-for-which-1d-contains-the-longest-recurring-cycle/
https://raw.githubusercontent.com/zimpha/competitive-programming/master/project-euler/volume01/26.cc
https://raw.githubusercontent.com/nayuki/Project-Euler-solutions/blob/master/haskell/p026.hs
