https://raw.githubusercontent.com/linuxp3nguin/microcorruption-1/master/CTF/JA
http://piratezpdx.blogspot.com.co/2015/09/microcorruption-jakarta.html
https://www.youtube.com/watch?v=KjEb0VELxwo
http://j4ckp4rd.tistory.com/87
https://github.com/ciz/microcorruption#jakarta
