https://raw.githubusercontent.com/sile/euler.rs/master/euler_02/src/problem075.rs
https://raw.githubusercontent.com/smacke/project-euler/master/python/75.py
https://raw.githubusercontent.com/nayuki/Project-Euler-solutions/master/java/p075.java
https://www.mathblog.dk/project-euler-75-lengths-of-wire-right-angle-triangle/
