20
385 924 1036
117 156 169
56 105 115
48 36 60
392 735 833
696 1305 1479
245 840 875
246 328 410
36 15 41
255 136 317
450 1080 1100
420 224 423
288 84 303
145 348 355
415 996 1079
1455 776 1649
744 1395 1581
270 648 702
260 624 722
1188 495 1220
