https://www.youtube.com/watch?v=7ifJOon5-G8
https://www.hackthebox.eu/home/machines/writeup/135
https://x4nt0n.github.io/writeups/Olympus/
https://github.com/x4nt0n/HackTheBox-Write-ups/raw/master/x4nt0n-Olympus.odt
https://github.com/3zculprit/HTB-WriteUp/raw/master/Olympus-writeup.pdf
https://0xsaiyajin.github.io/writeup/2018/09/25/hackthebox-olympus-writeup-eng.html
https://www.secjuice.com/hackthebox-olympus-writeup/
https://fasetto.github.io/hack-the-box-olympus/
https://epi052.gitlab.io/notes-to-self/blog/2018-09-19-hack-the-box-olympus/
https://www.secjuice.com/hackthebox-canape-write-up/amp/
https://medium.com/ctf-writeups/olympus-write-up-htb-29a9202c85fb
https://www.youtube.com/watch?v=-dLoJrz2xQk
https://codemonkeyism.co.uk/htb-olympus/
https://www.hackingarticles.in/hack-the-box-olympus-walkthrough/
