http://raidersec.blogspot.com/2012/10/smash-stack-io-level-3-writeup.html
https://raw.githubusercontent.com/linuxp3nguin/smashing-the-stack-2013/master/IO/003
https://www.greyhat.dk/io-smashthestack-level-03/
