https://raw.githubusercontent.com/mpillar/codeeval/master/0-easy/stepwise-word/main.py
https://raw.githubusercontent.com/StevenDunn/CodeEval/master/StepwiseWord/c/saa.c
https://raw.githubusercontent.com/StevenDunn/CodeEval/master/StepwiseWord/cpp/saa.cpp
