https://raw.githubusercontent.com/nayuki/Project-Euler-solutions/master/java/p035.java
https://raw.githubusercontent.com/sile/euler.rs/master/euler_01/src/problem035.rs
https://raw.githubusercontent.com/kdungs/euler/master/035/euler_35.c
https://www.mathblog.dk/project-euler-35-circular-primes/
https://github.com/zimpha/competitive-programming/raw/master/project-euler/volume01/35.cc
https://raw.githubusercontent.com/nayuki/Project-Euler-solutions/blob/master/python/p035.py
https://raw.githubusercontent.com/nayuki/Project-Euler-solutions/blob/master/mathematica/p035.mathematica
