https://www.youtube.com/watch?v=zynuFoFgEPI
https://www.hackthebox.eu/home/machines/writeup/2
https://forum.hackthebox.eu/discussion/118/legacy-write-up-by-alamot-using-fuzzbunch
https://www.hackingarticles.in/hack-the-box-challenge-legacy-walkthrough/
