https://hackmethod.com/overthewire-bandit-20/
https://rundata.wordpress.com/2013/03/21/overthewire-bandit-wargame-solutions-1-24/
https://alexandervoidstar.wordpress.com/2016/03/13/overthewire-bandit-level-20/
https://blogcompsci.wordpress.com/2014/11/02/bandit-level-20-%E2%86%92-level-21/
http://sp4hack.blogspot.com.co/2014/01/overthewire-bandit-level-19-to-level-20.html
http://hexjump.blogspot.com.co/2014/12/bandit-level-20-to-21.html
http://codebluedev.blogspot.com.co/2015/07/overthewire-bandit-level-20.html
https://infamoussyn.com/2013/11/08/overthewire-bandit-level-0-25-writeup-completed/#level18
https://jdow.io/blog/2017/12/16/overthewire-bandit-wargame-walkthrough/#level-18---19
https://raw.githubusercontent.com/Cathon/mySolutions/master/overthewire/Bandit/Level_19.md
https://medium.com/@Kan1shka9/overthewire-wargames-bandit-walkthrough-df2b86826c67
https://github.com/milescrabill/overthewire-solutions/blob/master/Bandit.md
https://jhalon.github.io/over-the-wire-bandit2/
https://www.youtube.com/watch?v=buX-OBMAYVs
http://blog.zairo.kr/entry/OverTheWire-%E2%80%93-Bandit-Level-18-1?category=569917
https://github.com/Lorenyx/OverTheWire-Solutions/blob/master/bandit/level_19.md
