https://raw.githubusercontent.com/PunitGr/codeabbey/master/Array%20Checksum.py
https://raw.githubusercontent.com/danielmmetz/codeabbey/master/id17.hs
https://raw.githubusercontent.com/AleksandrSD/CodeAbbeyProblems/master/Problem17/Program.cs
https://raw.githubusercontent.com/snowhawk04/CodeAbbey/master/p017/main.cpp
https://gist.githubusercontent.com/nuc/473ad23190f614da39a7/raw/385883127cc018a0171a647a959d05d22f89afd5/xor-checksum-hex.js
https://raw.githubusercontent.com/fujaba/NetworkParser/master/src/main/java/de/uniks/networkparser/bytes/Checksum.java
https://raw.githubusercontent.com/mihasya/ishmael/master/table.php
https://raw.githubusercontent.com/davidm/lua-digest-crc32lua/master/lmod/digest/crc32lua.lua
https://raw.githubusercontent.com/mmcdon20/code_abbey/master/src/main/scala/Abbey017.scala
https://raw.githubusercontent.com/SmellyIrishMan/CodeAbbeyProblems/master/CodeAbbeyProblems/Checksum.fs
https://raw.githubusercontent.com/vinitkantrod/go-codeabbey/master/18_array_checksum/main.go
https://raw.githubusercontent.com/JesseClarkND/codeabbey_in_C-NET/master/Array%20Checksum
https://raw.githubusercontent.com/marclerodrigues/ruby_exercises/master/array_checksum.rb
